Migration statistics from municipalities — vaestonmuutos • rfinstats
…
  kokmuutos
Kokonaismuutos

  vaesto
Väkiluku

    Source

    Väestönmuutokset ja väkiluku alueittain, 1990-2022, Tilastokeskus,
 <https://pxdata.stat.fi/PxWeb/pxweb/fi/StatFin/StatFin__muutl/statfin_muutl_pxt_11ae.px/>

    Examples

vaestonmuutos
#> # A tibble: 4,017 × 23
#>    kunta    vuosi  vm01  vm11 luonvalisays vm43_tulo vm43_lahto vm43_netto  vm44
#>    <chr>    <chr> <int> <int>        <int>     <int>      <int>      <int> <int>
#>  1 Akaa     2010    201   150           51       853        769         84  1470
#>  2 Alajärvi 2010    129   122            7       313        446       -133   641
#>  3 Alavies… 2010     40    36            4       116        126        -10   128
#>  4 Alavus   2010    139   167          -28       347        473       -126   998
#>  5 Asikkala 2010     60    99          -39       452        420         32   496
#>  6 Askola   2010     58    33           25       280        269         11   146
#>  7 Aura     2010     61    22           39       242        222         20   176
#>  8 Brändö   2010      2     8           -6        24         28         -4    22
#>  9 Eckerö   2010      5    12           -7        52         40         12    30
#> 10 Enonkos… 2010     17    24           -7       100         99          1    91
#> # ℹ 4,007 more rows
#> # ℹ 14 more variables: vm41 <int>, vm41_nordic <int>, vm41_eu <int>,
#> #   vm42 <int>, vm42_nordic <int>, vm42_eu <int>, vm4142 <int>,
#> #   koknetmuutto <int>, vm2126 <int>, vm3136 <int>, valisays <int>,
#> #   vakorjaus <int>, kokmuutos <int>, vaesto <int>
…
